﻿{
  "features": [
   {
      "type": "Feature",
      "properties": {
        "stage": "1",
        "title": "Invitation au voyage",
        "text": "Une histoire extraordinaire, dans ce pays de lacs et de torrents tumultueux, une magicienne invite le promeneur/auditeur à voyager au fil du temps et de l’eau. L'écho des voix passées et présentes emportent le promeneur dans l'évolution de la vallée depuis le 19éme siècle jusqu'au début du 20éme.",
		"image": "",
		"photopath": ["media/photo/01_01.jpg"],
		"videopath": [""],
		"soundpath": ["media/sound/01_01.mp3"],
		"phototitle": ["Le Curtillard et Massif des Sept Laux"],
		"photolegend": [""],
		"photoauthor":[""],
		"photodate":[""],
		"videotitle": ["titre video"],
		"videolegend": ["légende video"],
		"videoauthor":["auteur video"],
		"videodate":["2016"],
		"soundtitle": ["titre sound"],
		"soundlegend": ["légende sound"],
		"soundauthor":["auteur sound"],
		"sounddate":["2016"]
      },
      "geometry": {
        "coordinates": [
          6.07361,
          45.286289
        ],
        "type": "Point"
      },
      "id": "97e3cc165dbab24430e830cedc57caf4"
    },
	{
      "type": "Feature",
      "properties": {
        "stage": "2",
        "title": "Le fermier surgi des eaux",
        "text": "La vie est rude dans la vallée du Haut Breda, les hivers sont longs et froids, la pluri activité est vitale pour la survie de ces familles de paysans. En plus des travaux de la ferme, l’homme  travaille pour les forges d’Allevard, la femme pour les gantiers grenoblois, une vie de labeur ponctuée par des saisons fortement contrastées.",
		"image": "",
		"photopath": ["media/photo/02_01.jpg"],
		"videopath": [""],
		"soundpath": ["media/sound/02_01.mp3"],
		"phototitle": ["titre photo"],
		"photolegend": ["légende photo"],
		"photoauthor":["auteur photo"],
		"photodate":["1857"],
		"videotitle": ["titre video"],
		"videolegend": ["légende video"],
		"videoauthor":["auteur video"],
		"videodate":["2016"],
		"soundtitle": ["titre sound"],
		"soundlegend": ["légende sound"],
		"soundauthor":["auteur sound"],
		"sounddate":["2016"]
      },
      "geometry": {
        "coordinates": [
          6.072607,
          45.288988
        ],
        "type": "Point"
      },
      "id": "225a88a1498e60d9a8e65c2705c9e81b"
    },
    {
      "type": "Feature",
      "properties": {
        "stage": "3",
        "title": "Qui connait vraiment le Vaugelas ?",
        "text": "La vallée du Haut Breda, c’est le pays de l’eau, elle est partout présente, lacs, torrents, ruisseaux. Elle coule en abondance toute l’année. C’était une richesse pour l’agriculture et un danger pour les familles lorsque les crues faisaient déborder les torrents. Gorges, torrents impétueux, êtes-vous le miroir du temps qui s’écoule ou la personnification du diable?",
		"image": "",
		"photopath": ["media/photo/03_01.jpg","media/photo/03_02.jpg"],
		"videopath": [""],
		"soundpath": ["media/sound/03_01.mp3"],
		"phototitle": ["titre photo","titre photo"],
		"photolegend": ["légende photo","légende photo"],
		"photoauthor":["auteur photo","auteur photo"],
		"photodate":["1857","1923"],
		"videotitle": ["titre video"],
		"videolegend": ["légende video"],
		"videoauthor":["auteur video"],
		"videodate":["2016"],
		"soundtitle": ["titre sound"],
		"soundlegend": ["légende sound"],
		"soundauthor":["auteur sound"],
		"sounddate":["2016"]
      },
      "geometry": {
        "coordinates": [
          6.07397,
          45.289305
        ],
        "type": "Point"
      },
      "id": "235b2c61796ef450aa988925d4b58282"
    },
   {
      "type": "Feature",
      "properties": {
        "stage": "4",
        "title": "Supplique des habitants d’Allevard au comte de Barral",
        "text": "Supplique des habitants d’Allevard et du Haut Breda au tribunal de Grenoble pour se plaindre des agissements du Comte de Barral, le voleur d’eau et peut- être d’âmes? Cet événement est relaté dans un document retrouvé aux archives départementales par Mr Dominique Voisenon.",
		"image": "",
		"photopath": ["media/photo/04_01.jpg","media/photo/04_02.jpg","media/photo/04_03.jpg","media/photo/04_04.jpg"],
		"videopath": [""],
		"soundpath": ["media/sound/04_01.mp3"],
		"phototitle": ["titre photo","titre photo","titre photo","titre photo"],
		"photolegend": ["légende photo","légende photo","légende photo","légende photo"],
		"photoauthor":["auteur photo","auteur photo","auteur photo","auteur photo"],
		"photodate":["1857","1857","1857","1857"],
		"videotitle": ["titre video"],
		"videolegend": ["légende video"],
		"videoauthor":["auteur video"],
		"videodate":["2016"],
		"soundtitle": ["titre sound"],
		"soundlegend": ["légende sound"],
		"soundauthor":["auteur sound"],
		"sounddate":["2016"]
      },
      "geometry": {
        "coordinates": [
          6.07676,
          45.28811
        ],
        "type": "Point"
      },
      "id": "8f308da97dd6aeb30d3986171afc35a7"
    },
    {
      "type": "Feature",
      "properties": {
        "stage": "5",
        "title": "La naissance de l'hydroélectricité et la guerre de l'eau",
        "text": "L’historien Dominique Voisenon nous raconte l’épopée parfois tumultueuse de la domestication de l’eau pour la production de l’énergie hydroélectrique. Nous sommes à la fin du 19éme siècle, les hommes d’affaires et les ingénieurs montrent une avidité et une inventivité sans limite. L’eau comme toujours reste une source de conflits de pouvoirs, d’intérêts financiers et de luttes d’influence, la première compagnie d’électricité s’appellera Force et Lumière, tout un symbole.",
		"image": "",
		"photopath": ["media/photo/05_01.jpg","media/photo/05_02.jpg","media/photo/05_03.jpg"],
		"videopath": [""],
		"soundpath": ["media/sound/05_01.mp3"],
		"phototitle": ["titre photo","titre photo","titre photo"],
		"photolegend": ["légende photo","légende photo","légende photo"],
		"photoauthor":["auteur photo","auteur photo","auteur photo"],
		"photodate":["1857","1857","1857"],
		"videotitle": ["titre video"],
		"videolegend": ["légende video"],
		"videoauthor":["auteur video"],
		"videodate":["2016"],
		"soundtitle": ["titre sound"],
		"soundlegend": ["légende sound"],
		"soundauthor":["auteur sound"],
		"sounddate":["2016"]
      },
      "geometry": {
        "coordinates": [
          6.077341,
          45.285802
        ],
        "type": "Point"
      },
      "id": "8ecdfcdcecd166caeb035dd043a9749b"
    },
    {
      "type": "Feature",
      "properties": {
        "stage": "6",
        "title": "Ambiance campagne",
        "text": "Entre le 16éme et le 18éme siècle, la vallée du Haut Breda s’est transformée, la forêt a disparu, laissant la place à l’agriculture et à l’activité sidérurgique, forte consommatrice de bois. L’eau est utilisée comme force motrice pour actionner les roues à aube des moulins, des martinets, le paysan est multi actif. Promeneurs/ auditeurs  vous êtes conviés à découvrir le sentier de Pinsot et son éco musée qui relate l’histoire du fer, des mines, de l’industrie sidérurgique et des transports.",
		"image": "",
		"photopath": ["media/photo/06_01.jpg","media/photo/06_02.jpg","media/photo/06_03.jpg","media/photo/06_04.jpg","media/photo/06_05.jpg"],
		"videopath": [""],
		"soundpath": ["media/sound/06_01_bre.mp3","media/sound/06_02_buc.mp3","media/sound/06_03_lav.mp3"],
		"phototitle": ["titre photo","titre photo","titre photo","titre photo","titre photo"],
		"photolegend": ["légende photo","légende photo","légende photo","légende photo","légende photo"],
		"photoauthor":["auteur photo","auteur photo","auteur photo","auteur photo","auteur photo"],
		"photodate":["1857","1857","1857","1857","1857"],
		"videotitle": ["titre video"],
		"videolegend": ["légende video"],
		"videoauthor":["auteur video"],
		"videodate":["2016"],
		"soundtitle": ["titre sound"],
		"soundlegend": ["légende sound"],
		"soundauthor":["auteur sound"],
		"sounddate":["2016"]
      },
      "geometry": {
        "coordinates": [
          6.07827,
          45.282721
        ],
        "type": "Point"
      },
      "id": "c4103df04229dd805ed8a3dc9771bf8c"
    },
	{
      "type": "Feature",
      "properties": {
        "stage": "7",
        "title": "Jour de noces",
        "text": "Quelle ambiance dans la vallée ! Au rythme du martinet qui frappe le métal, jamais la terre de nos montagnes n’a connu autant d’habitants. Le XIXème siècle célèbre l’alliance de l’agriculture, de l’eau et du fer.",
		"image": "",
		"photopath": ["media/photo/07_01.jpg"],
		"videopath": [""],
		"soundpath": ["media/sound/07_01.mp3"],
		"phototitle": ["titre photo"],
		"photolegend": ["légende photo"],
		"photoauthor":["auteur photo"],
		"photodate":["1857"],
		"videotitle": ["titre video"],
		"videolegend": ["légende video"],
		"videoauthor":["auteur video"],
		"videodate":["2016"],
		"soundtitle": ["titre sound"],
		"soundlegend": ["légende sound"],
		"soundauthor":["auteur sound"],
		"sounddate":["2016"]
      },
      "geometry": {
        "coordinates": [
          6.077353,
          45.281048
        ],
        "type": "Point"
      },
      "id": "7a56716f0008c1f06956496c5275fe06"
    },
   {
      "type": "Feature",
      "properties": {
        "stage": "8",
        "title": "Souvent frontière varie",
        "text": "…Bien fol qui s’y fie! Au col de la Croix se trouve la frontière entre la France et le royaume du Piémont  Sardaigne. Plus bas, entre la combe Madame et la cascade du Pissou, se déroule une scène de rencontre entre colprteurs et contrebandiers, français, italiens où chacun peut être l’un ou l’autre.",
		"image": "",
		"photopath": ["media/photo/08_01.jpg"],
		"videopath": [""],
		"soundpath": ["media/sound/08_01.mp3"],
		"phototitle": ["titre photo"],
		"photolegend": ["légende photo"],
		"photoauthor":["auteur photo"],
		"photodate":["1857"],
		"videotitle": ["titre video"],
		"videolegend": ["légende video"],
		"videoauthor":["auteur video"],
		"videodate":["2016"],
		"soundtitle": ["titre sound"],
		"soundlegend": ["légende sound"],
		"soundauthor":["auteur sound"],
		"sounddate":["2016"]
      },
      "geometry": {
        "coordinates": [
          6.080136,
          45.27603
        ],
        "type": "Point"
      },
      "id": "56b115eef47c637cdf1460ee1da780b1"
    },
	{
      "type": "Feature",
      "properties": {
        "stage": "9",
        "title": "Souvenirs de troc entre pêche et cueillette",
        "text": "La nature dans la vallée est généreuse, chasse, pêche, cueillette ont permis de développer une cuisine riche et originale. Les fameuses cuisses de grenouilles, le poulet aux écrevisses, la truite saumonée… qui ont fait le bonheur de nombreux touristes et curistes.",
		"image": "",
		"photopath": ["media/photo/09_01.jpg","media/photo/09_02.jpg","media/photo/09_03.jpg","media/photo/09_04.jpg"],
		"videopath": [""],
		"soundpath": ["media/sound/09_01.mp3"],
		"phototitle": ["titre photo","titre photo","titre photo","titre photo"],
		"photolegend": ["légende photo","légende photo","légende photo","légende photo"],
		"photoauthor":["auteur photo","auteur photo","auteur photo","auteur photo"],
		"photodate":["1857","1857","1857","1857"],
		"videotitle": ["titre video"],
		"videolegend": ["légende video"],
		"videoauthor":["auteur video"],
		"videodate":["2016"],
		"soundtitle": ["titre sound"],
		"soundlegend": ["légende sound"],
		"soundauthor":["auteur sound"],
		"sounddate":["2016"]
      },
      "geometry": {
        "coordinates": [
          6.080246,
          45.272561
        ],
        "type": "Point"
      },
      "id": "2a9ba47935243de2aef6ed3c2484e224"
    },
    {
      "type": "Feature",
      "properties": {
        "stage": "10",
        "title": "Le miracle de la vallée",
        "text": "L’étrange et longue évolution de cette vallée, de la légende du pain du mineur à sa nouvelle jeunesse grâce aux néo ruraux, portée par l’essor du tourisme et un nouvel art de vivre, nous amène à imaginer que cette vallée du Haut Breda connaitra de nouvelles aventures surprenantes.",
		"image": "",
		"photopath": ["media/photo/10_01.jpg","media/photo/10_02.jpg"],
		"videopath": [""],
		"soundpath": ["media/sound/10_01.mp3"],
		"phototitle": ["titre photo","titre photo"],
		"photolegend": ["légende photo","légende photo"],
		"photoauthor":["auteur photo","auteur photo"],
		"photodate":["1857","1857"],
		"videotitle": ["titre video"],
		"videolegend": ["légende video"],
		"videoauthor":["auteur video"],
		"videodate":["2016"],
		"soundtitle": ["titre sound"],
		"soundlegend": ["légende sound"],
		"soundauthor":["auteur sound"],
		"sounddate":["2016"]
      },
      "geometry": {
        "coordinates": [
          6.076255,
          45.276668
        ],
        "type": "Point"
      },
      "id": "d50a9a6127d954d065ed28479fbbb1bc"
    },
   {
      "type": "Feature",
      "properties": {
        "stage": "11",
        "title": "Deuxième noce (l’eau et la centrale)",
        "text": "Suivez, écoutez la longue chute de l’eau dans les conduites forcées, des 7 Laux à la centrale, son repos dans les bassins de Fond de France, son cheminement dans la vallée à travers conduits et turbines pour produire la magie de l’électricité, la houille blanche.",
		"image": "",
		"photopath": ["media/photo/11_01.jpg","media/photo/11_02.jpg"],
		"videopath": [""],
		"soundpath": ["media/sound/11_01.mp3"],
		"phototitle": ["Plan de la centrale hydro-électrique","Vallée du Haut-Bréda - La Ferrière"],
		"photolegend": ["légende photo 1","légende photo 2"],
		"photoauthor":["auteur photo 1","auteur photo 2"],
		"photodate":["1857","1967"],
		"videotitle": ["titre video"],
		"videolegend": ["légende video"],
		"videoauthor":["auteur video"],
		"videodate":["2016"],
		"soundtitle": ["titre sound"],
		"soundlegend": ["légende sound"],
		"soundauthor":["auteur sound"],
		"sounddate":["2016"]
      },
      "geometry": {
        "coordinates": [
          6.073787,
          45.277348
        ],
        "type": "Point"
      },
      "id": "f57fd389e67e94a3479a72a1d935b455"
    },
    {
      "type": "Feature",
      "properties": {
        "stage": "12",
        "title": "L'hôpital de la Résistance",
        "text": "Des pas feutrés dans la nuit, le grincement sur le câble du monte-charge de la centrale, en haut, près des lacs un hôpital accueille les résistants de la France occupée.",
		"image": "",
		"photopath": ["media/photo/12_01.jpg","media/photo/12_02.jpg"],
		"videopath": [""],
		"soundpath": ["media/sound/12_01.mp3"],
		"phototitle": ["titre photo","titre photo"],
		"photolegend": ["légende photo","légende photo"],
		"photoauthor":["auteur photo","auteur photo"],
		"photodate":["1857","1857"],
		"videotitle": ["titre video"],
		"videolegend": ["légende video"],
		"videoauthor":["auteur video"],
		"videodate":["2016"],
		"soundtitle": ["titre sound"],
		"soundlegend": ["légende sound"],
		"soundauthor":["auteur sound"],
		"sounddate":["2016"]
      },
      "geometry": {
        "coordinates": [
          6.070547,
          45.277333
        ],
        "type": "Point"
      },
      "id": "034c12ba41e9dcab17847b2471be52b6"
    },
	{
      "type": "Feature",
      "properties": {
        "stage": "13",
        "title": "Hôtels et migration vers Fond de France",
        "text": "Les nombreux chantiers font appel à des centaines d’hommes venus des 4 coins de l’Europe… loin de leurs familles, échoués au bout de cette vallée.  Peu de lieux évoquent leur mémoire . Pourtant  quelques-uns y sont restés…",
		"image": "",
		"photopath": ["media/photo/13_01.jpg"],
		"videopath": [""],
		"soundpath": ["media/sound/13_01.mp3"],
		"phototitle": ["titre photo"],
		"photolegend": ["légende photo"],
		"photoauthor":["auteur photo"],
		"photodate":["1857"],
		"videotitle": ["titre video"],
		"videolegend": ["légende video"],
		"videoauthor":["auteur video"],
		"videodate":["2016"],
		"soundtitle": ["titre sound"],
		"soundlegend": ["légende sound"],
		"soundauthor":["auteur sound"],
		"sounddate":["2016"]
      },
      "geometry": {
        "coordinates": [
          6.072865,
          45.280232
        ],
        "type": "Point"
      },
      "id": "01ee91ef32157a916de5cbf55e7ca0f7"
    },
    {
      "type": "Feature",
      "properties": {
        "stage": "14",
        "title": "Vers les lacs du ciel - l’ascension d’Edwige",
        "text": " Les lacs des 7 Laux, étaient à la Belle Epoque un lieu de randonnée réputé pour les premiers touristes avides d’aventure. La montée rude, empruntant le passage du Cul de la Vieille, débouche sur les lacs dans une ambiance de haute montagne, pouvant surprendre le randonneur peu aguerri aux changements rapides de température.",
		"image": "",
		"photopath": ["media/photo/14_01.jpg"],
		"videopath": [""],
		"soundpath": ["media/sound/14_01.mp3"],
		"phototitle": ["titre photo"],
		"photolegend": ["légende photo"],
		"photoauthor":["auteur photo"],
		"photodate":["1857"],
		"videotitle": ["titre video"],
		"videolegend": ["légende video"],
		"videoauthor":["auteur video"],
		"videodate":["2016"],
		"soundtitle": ["titre sound"],
		"soundlegend": ["légende sound"],
		"soundauthor":["auteur sound"],
		"sounddate":["2016"]
      },
      "geometry": {
        "coordinates": [
          6.07338,
          45.283885
        ],
        "type": "Point"
      },
      "id": "dd2bd5edbe27b4411b609b4197b720f2"
    },
	{
      "type": "Feature",
      "properties": {
        "stage": "15",
        "title": "L'Histoire d'Ô - Fin",
        "text": "La vallée du Haut-Bréda pourrait s’appeler Eau du Bréda, Oh Bréda! ou avec un peu de mystère la vallée d’O de la fée électrique. Les Ceylau, ce ne sont pas 7 lacs…Pourquoi encore un mystère en ce lieu ? Regardez vers le ciel, les lacs, «c’est là- haut», disent les gens d’en bas.",
		"image": "",
		"photopath": ["media/photo/15_01.jpg"],
		"videopath": [""],
		"soundpath": ["media/sound/15_01.mp3"],
		"phototitle": ["titre photo"],
		"photolegend": ["légende photo"],
		"photoauthor":["auteur photo"],
		"photodate":["1857"],
		"videotitle": ["titre video"],
		"videolegend": ["légende video"],
		"videoauthor":["auteur video"],
		"videodate":["2016"],
		"soundtitle": ["titre sound"],
		"soundlegend": ["légende sound"],
		"soundauthor":["auteur sound"],
		"sounddate":["2016"]
      },
      "geometry": {
        "coordinates": [
          6.074452,
          45.285923
        ],
        "type": "Point"
      },
      "id": "52886eb358a48028b0b47a426cc67dd7"
    }
  ],
  "type": "FeatureCollection"
}